[
    { "id" : 0, "name" : "_Limvely", "image" : "https://picsum.photos/200?r=0" },
    { "id" : 1, "name" : "salmon_X", "image" : "https://picsum.photos/200?r=1" },
    { "id" : 2, "name" : "360noscope", "image" : "https://picsum.photos/200?r=2" },
    { "id" : 3, "name" : "Jeony_1", "image" : "https://picsum.photos/200?r=3" },
    { "id" : 4, "name" : "mihyeon", "image" : "https://picsum.photos/200?r=4" }
]

